{
  "char_260_durnar": {
    "charID": "char_260_durnar",
    "xPos": -299.99118,
    "yPos": 259.8,
    "sixPosX": -4,
    "sixPosY": 3,
    "lvl": 0.0,
    "teamID": 0,
    "name": null,
    "cardID": null
  },
  "char_188_helage": {
    "charID": "char_188_helage",
    "xPos": 824.975769,
    "yPos": -216.5,
    "sixPosX": 11,
    "sixPosY": -3,
    "lvl": 0.0,
    "teamID": 0,
    "name": null,
    "cardID": null
  },
  "char_120_hibisc": {
    "charID": "char_120_hibisc",
    "xPos": -524.984558,
    "yPos": 216.5,
    "sixPosX": -7,
    "sixPosY": 2,
    "lvl": 0.0,
    "teamID": 0,
    "name": null,
    "cardID": null
  },
  "char_204_platnm": {
    "charID": "char_204_platnm",
    "xPos": 374.988983,
    "yPos": 389.699982,
    "sixPosX": 5,
    "sixPosY": 4,
    "lvl": 0.0,
    "teamID": 0,
    "name": null,
    "cardID": null
  },
  "char_140_whitew": {
    "charID": "char_140_whitew",
    "xPos": 0.0,
    "yPos": -433.0,
    "sixPosX": 0,
    "sixPosY": -5,
    "lvl": 0.0,
    "teamID": 0,
    "name": null,
    "cardID": null
  },
  "char_1012_theresa": {
    "charID": "char_1012_theresa",
    "xPos": 149.99559,
    "yPos": 0.0,
    "sixPosX": 2,
    "sixPosY": 0,
    "lvl": 0.0,
    "teamID": 0,
    "name": null,
    "cardID": null
  },
  "char_112_siege": {
    "charID": "char_112_siege",
    "xPos": 374.988983,
    "yPos": 129.9,
    "sixPosX": 5,
    "sixPosY": 1,
    "lvl": 0.0,
    "teamID": 0,
    "name": null,
    "cardID": null
  },
  "char_129_bluep": {
    "charID": "char_129_bluep",
    "xPos": -749.977966,
    "yPos": -433.0,
    "sixPosX": -10,
    "sixPosY": -5,
    "lvl": 0.0,
    "teamID": 0,
    "name": null,
    "cardID": null
  },
  "npc_2006_fmzuki": {
    "charID": "npc_2006_fmzuki",
    "xPos": -299.99118,
    "yPos": -259.8,
    "sixPosX": -4,
    "sixPosY": -3,
    "lvl": 0.0,
    "teamID": 0,
    "name": null,
    "cardID": null
  },
  "char_171_bldsk": {
    "charID": "char_171_bldsk",
    "xPos": 74.9977951,
    "yPos": 476.3,
    "sixPosX": 1,
    "sixPosY": 5,
    "lvl": 0.0,
    "teamID": 0,
    "name": null,
    "cardID": null
  },
  "char_326_glacus": {
    "charID": "char_326_glacus",
    "xPos": -899.9736,
    "yPos": -259.8,
    "sixPosX": -12,
    "sixPosY": -3,
    "lvl": 0.0,
    "teamID": 0,
    "name": null,
    "cardID": null
  },
  "char_291_aglina": {
    "charID": "char_291_aglina",
    "xPos": -224.9934,
    "yPos": 216.5,
    "sixPosX": -3,
    "sixPosY": 2,
    "lvl": 0.0,
    "teamID": 0,
    "name": null,
    "cardID": null
  },
  "char_126_shotst": {
    "charID": "char_126_shotst",
    "xPos": 449.9868,
    "yPos": 346.4,
    "sixPosX": 6,
    "sixPosY": 4,
    "lvl": 0.0,
    "teamID": 0,
    "name": null,
    "cardID": null
  },
  "char_122_beagle": {
    "charID": "char_122_beagle",
    "xPos": -524.984558,
    "yPos": 129.9,
    "sixPosX": -7,
    "sixPosY": 1,
    "lvl": 0.0,
    "teamID": 0,
    "name": null,
    "cardID": null
  },
  "char_143_ghost": {
    "charID": "char_143_ghost",
    "xPos": -674.98,
    "yPos": -389.700043,
    "sixPosX": -9,
    "sixPosY": -5,
    "lvl": 0.0,
    "teamID": 0,
    "name": null,
    "cardID": null
  },
  "char_193_frostl": {
    "charID": "char_193_frostl",
    "xPos": -299.99118,
    "yPos": 346.4,
    "sixPosX": -4,
    "sixPosY": 4,
    "lvl": 0.0,
    "teamID": 0,
    "name": null,
    "cardID": null
  },
  "char_242_otter": {
    "charID": "char_242_otter",
    "xPos": 374.988983,
    "yPos": -476.3,
    "sixPosX": 5,
    "sixPosY": -6,
    "lvl": 0.0,
    "teamID": 0,
    "name": null,
    "cardID": null
  },
  "char_209_ardign": {
    "charID": "char_209_ardign",
    "xPos": -749.977966,
    "yPos": 86.60001,
    "sixPosX": -10,
    "sixPosY": 1,
    "lvl": 0.0,
    "teamID": 0,
    "name": null,
    "cardID": null
  },
  "char_103_angel": {
    "charID": "char_103_angel",
    "xPos": -74.9977951,
    "yPos": 216.5,
    "sixPosX": -1,
    "sixPosY": 2,
    "lvl": 0.0,
    "teamID": 0,
    "name": null,
    "cardID": null
  },
  "char_340_shwaz": {
    "charID": "char_340_shwaz",
    "xPos": 749.977966,
    "yPos": -346.4,
    "sixPosX": 10,
    "sixPosY": -4,
    "lvl": 0.0,
    "teamID": 0,
    "name": null,
    "cardID": null
  },
  "char_230_savage": {
    "charID": "char_230_savage",
    "xPos": -74.9977951,
    "yPos": 43.3,
    "sixPosX": -1,
    "sixPosY": 0,
    "lvl": 0.0,
    "teamID": 0,
    "name": null,
    "cardID": null
  },
  "char_298_susuro": {
    "charID": "char_298_susuro",
    "xPos": -224.9934,
    "yPos": 389.699982,
    "sixPosX": -3,
    "sixPosY": 4,
    "lvl": 0.0,
    "teamID": 0,
    "name": null,
    "cardID": null
  },
  "char_195_glassb": {
    "charID": "char_195_glassb",
    "xPos": 599.982361,
    "yPos": -259.8,
    "sixPosX": 8,
    "sixPosY": -3,
    "lvl": 0.0,
    "teamID": 0,
    "name": null,
    "cardID": null
  },
  "char_180_amgoat": {
    "charID": "char_180_amgoat",
    "xPos": 599.982361,
    "yPos": 259.8,
    "sixPosX": 8,
    "sixPosY": 3,
    "lvl": 0.0,
    "teamID": 0,
    "name": null,
    "cardID": null
  },
  "char_173_slchan": {
    "charID": "char_173_slchan",
    "xPos": 599.982361,
    "yPos": -86.6,
    "sixPosX": 8,
    "sixPosY": -1,
    "lvl": 0.0,
    "teamID": 0,
    "name": null,
    "cardID": null
  },
  "char_150_snakek": {
    "charID": "char_150_snakek",
    "xPos": -524.984558,
    "yPos": 303.1,
    "sixPosX": -7,
    "sixPosY": 3,
    "lvl": 0.0,
    "teamID": 0,
    "name": null,
    "cardID": null
  },
  "char_109_fmout": {
    "charID": "char_109_fmout",
    "xPos": 674.9802,
    "yPos": 389.699951,
    "sixPosX": 9,
    "sixPosY": 4,
    "lvl": 0.0,
    "teamID": 0,
    "name": null,
    "cardID": null
  },
  "char_286_cast3": {
    "charID": "char_286_cast3",
    "xPos": 224.9934,
    "yPos": 129.9,
    "sixPosX": 3,
    "sixPosY": 1,
    "lvl": 0.0,
    "teamID": 0,
    "name": null,
    "cardID": null
  },
  "char_155_tiger": {
    "charID": "char_155_tiger",
    "xPos": 374.988983,
    "yPos": 216.5,
    "sixPosX": 5,
    "sixPosY": 2,
    "lvl": 0.0,
    "teamID": 0,
    "name": null,
    "cardID": null
  },
  "char_199_yak": {
    "charID": "char_199_yak",
    "xPos": 599.982361,
    "yPos": 0.0,
    "sixPosX": 8,
    "sixPosY": 0,
    "lvl": 0.0,
    "teamID": 0,
    "name": null,
    "cardID": null
  },
  "char_240_wyvern": {
    "charID": "char_240_wyvern",
    "xPos": -524.984558,
    "yPos": -303.1,
    "sixPosX": -7,
    "sixPosY": -4,
    "lvl": 0.0,
    "teamID": 0,
    "name": null,
    "cardID": null
  },
  "char_501_durin": {
    "charID": "char_501_durin",
    "xPos": -449.9868,
    "yPos": 86.6,
    "sixPosX": -6,
    "sixPosY": 1,
    "lvl": 0.0,
    "teamID": 0,
    "name": null,
    "cardID": null
  },
  "char_263_skadi": {
    "charID": "char_263_skadi",
    "xPos": -674.9802,
    "yPos": -476.3,
    "sixPosX": -9,
    "sixPosY": -6,
    "lvl": 0.0,
    "teamID": 0,
    "name": null,
    "cardID": null
  },
  "char_107_liskam": {
    "charID": "char_107_liskam",
    "xPos": -449.9868,
    "yPos": -173.2,
    "sixPosX": -6,
    "sixPosY": -2,
    "lvl": 0.4,
    "teamID": 0,
    "name": null,
    "cardID": null
  },
  "char_121_lava": {
    "charID": "char_121_lava",
    "xPos": -599.982361,
    "yPos": 173.2,
    "sixPosX": -8,
    "sixPosY": 2,
    "lvl": 0.0,
    "teamID": 0,
    "name": null,
    "cardID": null
  },
  "char_141_nights": {
    "charID": "char_141_nights",
    "xPos": 674.9802,
    "yPos": 303.099945,
    "sixPosX": 9,
    "sixPosY": 3,
    "lvl": 0.0,
    "teamID": 0,
    "name": null,
    "cardID": null
  },
  "char_181_flower": {
    "charID": "char_181_flower",
    "xPos": -299.99118,
    "yPos": 433.0,
    "sixPosX": -4,
    "sixPosY": 5,
    "lvl": 0.0,
    "teamID": 0,
    "name": null,
    "cardID": null
  },
  "char_145_prove": {
    "charID": "char_145_prove",
    "xPos": 599.982361,
    "yPos": 173.2,
    "sixPosX": 8,
    "sixPosY": 2,
    "lvl": 0.0,
    "teamID": 0,
    "name": null,
    "cardID": null
  },
  "char_284_spot": {
    "charID": "char_284_spot",
    "xPos": -899.9736,
    "yPos": 173.2,
    "sixPosX": -12,
    "sixPosY": 2,
    "lvl": 0.0,
    "teamID": 0,
    "name": null,
    "cardID": null
  },
  "char_500_noirc": {
    "charID": "char_500_noirc",
    "xPos": -449.9868,
    "yPos": 173.2,
    "sixPosX": -6,
    "sixPosY": 2,
    "lvl": 0.0,
    "teamID": 0,
    "name": null,
    "cardID": null
  },
  "char_274_astesi": {
    "charID": "char_274_astesi",
    "xPos": 524.984558,
    "yPos": -389.699982,
    "sixPosX": 7,
    "sixPosY": -5,
    "lvl": 0.0,
    "teamID": 0,
    "name": null,
    "cardID": null
  },
  "char_253_greyy": {
    "charID": "char_253_greyy",
    "xPos": -524.984558,
    "yPos": 389.699982,
    "sixPosX": -7,
    "sixPosY": 4,
    "lvl": 0.0,
    "teamID": 0,
    "name": null,
    "cardID": null
  },
  "char_198_blackd": {
    "charID": "char_198_blackd",
    "xPos": 749.977966,
    "yPos": 0.0,
    "sixPosX": 10,
    "sixPosY": 0,
    "lvl": 0.0,
    "teamID": 0,
    "name": null,
    "cardID": null
  },
  "char_148_nearl": {
    "charID": "char_148_nearl",
    "xPos": 299.99118,
    "yPos": 346.4,
    "sixPosX": 4,
    "sixPosY": 4,
    "lvl": 0.4,
    "teamID": 0,
    "name": null,
    "cardID": null
  },
  "char_503_rang": {
    "charID": "char_503_rang",
    "xPos": -374.988983,
    "yPos": 129.9,
    "sixPosX": -5,
    "sixPosY": 1,
    "lvl": 0.0,
    "teamID": 0,
    "name": null,
    "cardID": null
  },
  "char_101_sora": {
    "charID": "char_101_sora",
    "xPos": -224.9934,
    "yPos": 129.9,
    "sixPosX": -3,
    "sixPosY": 1,
    "lvl": 0.0,
    "teamID": 0,
    "name": null,
    "cardID": null
  },
  "char_220_grani": {
    "charID": "char_220_grani",
    "xPos": 374.988983,
    "yPos": 303.1,
    "sixPosX": 5,
    "sixPosY": 3,
    "lvl": 0.0,
    "teamID": 0,
    "name": null,
    "cardID": null
  },
  "char_211_adnach": {
    "charID": "char_211_adnach",
    "xPos": -674.980164,
    "yPos": 129.9,
    "sixPosX": -9,
    "sixPosY": 1,
    "lvl": 0.0,
    "teamID": 0,
    "name": null,
    "cardID": null
  },
  "char_192_falco": {
    "charID": "char_192_falco",
    "xPos": -149.99559,
    "yPos": 346.4,
    "sixPosX": -2,
    "sixPosY": 4,
    "lvl": 0.0,
    "teamID": 0,
    "name": null,
    "cardID": null
  },
  "char_108_silent": {
    "charID": "char_108_silent",
    "xPos": 374.988983,
    "yPos": -303.1,
    "sixPosX": 5,
    "sixPosY": -4,
    "lvl": 0.4,
    "teamID": 0,
    "name": null,
    "cardID": null
  },
  "char_210_stward": {
    "charID": "char_210_stward",
    "xPos": -674.980164,
    "yPos": 216.5,
    "sixPosX": -9,
    "sixPosY": 2,
    "lvl": 0.0,
    "teamID": 0,
    "name": null,
    "cardID": null
  },
  "char_208_melan": {
    "charID": "char_208_melan",
    "xPos": -674.980164,
    "yPos": 43.30002,
    "sixPosX": -9,
    "sixPosY": 0,
    "lvl": 0.4,
    "teamID": 0,
    "name": null,
    "cardID": null
  },
  "char_134_ifrit": {
    "charID": "char_134_ifrit",
    "xPos": 374.988983,
    "yPos": -389.699982,
    "sixPosX": 5,
    "sixPosY": -5,
    "lvl": 0.0,
    "teamID": 0,
    "name": null,
    "cardID": null
  },
  "char_236_rope": {
    "charID": "char_236_rope",
    "xPos": -374.988983,
    "yPos": 303.1,
    "sixPosX": -5,
    "sixPosY": 3,
    "lvl": 0.0,
    "teamID": 0,
    "name": null,
    "cardID": null
  },
  "char_185_frncat": {
    "charID": "char_185_frncat",
    "xPos": 749.977966,
    "yPos": 259.8,
    "sixPosX": 10,
    "sixPosY": 3,
    "lvl": 0.0,
    "teamID": 0,
    "name": null,
    "cardID": null
  },
  "char_283_midn": {
    "charID": "char_283_midn",
    "xPos": -899.9736,
    "yPos": 86.6,
    "sixPosX": -12,
    "sixPosY": 1,
    "lvl": 0.0,
    "teamID": 0,
    "name": null,
    "cardID": null
  },
  "char_128_plosis": {
    "charID": "char_128_plosis",
    "xPos": 299.99118,
    "yPos": -346.4,
    "sixPosX": 4,
    "sixPosY": -4,
    "lvl": 0.0,
    "teamID": 0,
    "name": null,
    "cardID": null
  },
  "char_285_medic2": {
    "charID": "char_285_medic2",
    "xPos": 149.99559,
    "yPos": 86.6,
    "sixPosX": 2,
    "sixPosY": 1,
    "lvl": 0.0,
    "teamID": 0,
    "name": null,
    "cardID": null
  },
  "char_130_doberm": {
    "charID": "char_130_doberm",
    "xPos": -299.99118,
    "yPos": -86.6,
    "sixPosX": -4,
    "sixPosY": -1,
    "lvl": 0.4,
    "teamID": 0,
    "name": null,
    "cardID": null
  },
  "char_137_brownb": {
    "charID": "char_137_brownb",
    "xPos": 599.982361,
    "yPos": -346.4,
    "sixPosX": 8,
    "sixPosY": -4,
    "lvl": 0.0,
    "teamID": 0,
    "name": null,
    "cardID": null
  },
  "char_290_vigna": {
    "charID": "char_290_vigna",
    "xPos": 74.9977951,
    "yPos": 389.699982,
    "sixPosX": 1,
    "sixPosY": 4,
    "lvl": 0.0,
    "teamID": 0,
    "name": null,
    "cardID": null
  },
  "char_241_panda": {
    "charID": "char_241_panda",
    "xPos": -299.99118,
    "yPos": -346.4,
    "sixPosX": -4,
    "sixPosY": -4,
    "lvl": 0.0,
    "teamID": 0,
    "name": null,
    "cardID": null
  },
  "char_117_myrrh": {
    "charID": "char_117_myrrh",
    "xPos": -224.9934,
    "yPos": 303.1,
    "sixPosX": -3,
    "sixPosY": 3,
    "lvl": 0.0,
    "teamID": 0,
    "name": null,
    "cardID": null
  },
  "char_144_red": {
    "charID": "char_144_red",
    "xPos": 74.9977951,
    "yPos": -389.699982,
    "sixPosX": 1,
    "sixPosY": -5,
    "lvl": 0.4,
    "teamID": 0,
    "name": null,
    "cardID": null
  },
  "npc_2005_wywu": {
    "charID": "npc_2005_wywu",
    "xPos": -224.9934,
    "yPos": -216.5,
    "sixPosX": -3,
    "sixPosY": -3,
    "lvl": 0.4,
    "teamID": 0,
    "name": null,
    "cardID": null
  },
  "npc_011_talula": {
    "charID": "npc_011_talula",
    "xPos": 899.9736,
    "yPos": -433.0,
    "sixPosX": 12,
    "sixPosY": -5,
    "lvl": 0.0,
    "teamID": 0,
    "name": null,
    "cardID": null
  },
  "char_237_gravel": {
    "charID": "char_237_gravel",
    "xPos": 374.988983,
    "yPos": 476.3,
    "sixPosX": 5,
    "sixPosY": 5,
    "lvl": 0.0,
    "teamID": 0,
    "name": null,
    "cardID": null
  },
  "npc_003_kalts": {
    "charID": "npc_003_kalts",
    "xPos": 74.9977951,
    "yPos": -216.5,
    "sixPosX": 1,
    "sixPosY": -3,
    "lvl": 1.4,
    "teamID": 0,
    "name": null,
    "cardID": null
  },
  "char_127_estell": {
    "charID": "char_127_estell",
    "xPos": 749.977966,
    "yPos": 346.4,
    "sixPosX": 10,
    "sixPosY": 4,
    "lvl": 0.0,
    "teamID": 0,
    "name": null,
    "cardID": null
  },
  "char_009_12fce": {
    "charID": "char_009_12fce",
    "xPos": -974.9714,
    "yPos": 129.9,
    "sixPosX": -13,
    "sixPosY": 1,
    "lvl": 0.0,
    "teamID": 0,
    "name": null,
    "cardID": null
  },
  "char_118_yuki": {
    "charID": "char_118_yuki",
    "xPos": -374.988983,
    "yPos": -303.1,
    "sixPosX": -5,
    "sixPosY": -4,
    "lvl": 0.0,
    "teamID": 0,
    "name": null,
    "cardID": null
  },
  "char_235_jesica": {
    "charID": "char_235_jesica",
    "xPos": -449.9868,
    "yPos": -259.8,
    "sixPosX": -6,
    "sixPosY": -3,
    "lvl": 0.0,
    "teamID": 0,
    "name": null,
    "cardID": null
  },
  "char_215_mantic": {
    "charID": "char_215_mantic",
    "xPos": -449.9868,
    "yPos": 259.8,
    "sixPosX": -6,
    "sixPosY": 3,
    "lvl": 0.0,
    "teamID": 0,
    "name": null,
    "cardID": null
  },
  "char_102_texas": {
    "charID": "char_102_texas",
    "xPos": -149.99559,
    "yPos": 86.6,
    "sixPosX": -2,
    "sixPosY": 1,
    "lvl": 0.4,
    "teamID": 0,
    "name": null,
    "cardID": null
  },
  "char_106_franka": {
    "charID": "char_106_franka",
    "xPos": -524.984558,
    "yPos": -216.5,
    "sixPosX": -7,
    "sixPosY": -3,
    "lvl": 0.0,
    "teamID": 0,
    "name": null,
    "cardID": null
  },
  "char_149_scave": {
    "charID": "char_149_scave",
    "xPos": 149.99559,
    "yPos": -433.0,
    "sixPosX": 2,
    "sixPosY": -5,
    "lvl": 0.0,
    "teamID": 0,
    "name": null,
    "cardID": null
  },
  "char_282_catap": {
    "charID": "char_282_catap",
    "xPos": -824.975769,
    "yPos": 129.9,
    "sixPosX": -11,
    "sixPosY": 1,
    "lvl": 0.0,
    "teamID": 0,
    "name": null,
    "cardID": null
  },
  "char_502_nblade": {
    "charID": "char_502_nblade",
    "xPos": -374.988983,
    "yPos": 43.3,
    "sixPosX": -5,
    "sixPosY": 0,
    "lvl": 0.4,
    "teamID": 0,
    "name": null,
    "cardID": null
  },
  "char_289_gyuki": {
    "charID": "char_289_gyuki",
    "xPos": -224.9934,
    "yPos": -476.3,
    "sixPosX": -3,
    "sixPosY": -6,
    "lvl": 0.0,
    "teamID": 0,
    "name": null,
    "cardID": null
  },
  "char_277_sqrrel": {
    "charID": "char_277_sqrrel",
    "xPos": -374.988983,
    "yPos": -389.699982,
    "sixPosX": -5,
    "sixPosY": -5,
    "lvl": 0.0,
    "teamID": 0,
    "name": null,
    "cardID": null
  },
  "char_187_ccheal": {
    "charID": "char_187_ccheal",
    "xPos": 824.975769,
    "yPos": 303.1,
    "sixPosX": 11,
    "sixPosY": 3,
    "lvl": 0.0,
    "teamID": 0,
    "name": null,
    "cardID": null
  },
  "npc_010_chen": {
    "charID": "npc_010_chen",
    "xPos": -149.99559,
    "yPos": -259.8,
    "sixPosX": -2,
    "sixPosY": -3,
    "lvl": 0.4,
    "teamID": 0,
    "name": null,
    "cardID": null
  },
  "char_010_chen": {
    "charID": "char_010_chen",
    "xPos": -149.99559,
    "yPos": -259.8,
    "sixPosX": -2,
    "sixPosY": -3,
    "lvl": 0.4,
    "teamID": 0,
    "name": null,
    "cardID": null
  },
  "char_219_meteo": {
    "charID": "char_219_meteo",
    "xPos": 149.99559,
    "yPos": 433.0,
    "sixPosX": 2,
    "sixPosY": 5,
    "lvl": 0.0,
    "teamID": 0,
    "name": null,
    "cardID": null
  },
  "npc_001_doctor": {
    "charID": "npc_001_doctor",
    "xPos": 149.99559,
    "yPos": -86.6,
    "sixPosX": 2,
    "sixPosY": -1,
    "lvl": 1.4,
    "teamID": 0,
    "name": null,
    "cardID": null
  },
  "char_308_swire": {
    "charID": "char_308_swire",
    "xPos": -149.99559,
    "yPos": -346.4,
    "sixPosX": -2,
    "sixPosY": -4,
    "lvl": 0.0,
    "teamID": 0,
    "name": null,
    "cardID": null
  },
  "char_202_demkni": {
    "charID": "char_202_demkni",
    "xPos": 299.99118,
    "yPos": -433.0,
    "sixPosX": 4,
    "sixPosY": -5,
    "lvl": 0.0,
    "teamID": 0,
    "name": null,
    "cardID": null
  },
  "char_212_ansel": {
    "charID": "char_212_ansel",
    "xPos": -749.977966,
    "yPos": 173.2,
    "sixPosX": -10,
    "sixPosY": 2,
    "lvl": 0.0,
    "teamID": 0,
    "name": null,
    "cardID": null
  },
  "npc_113_cqbw": {
    "charID": "npc_113_cqbw",
    "xPos": 749.977966,
    "yPos": -519.6,
    "sixPosX": 10,
    "sixPosY": -6,
    "lvl": 0.0,
    "teamID": 0,
    "name": null,
    "cardID": null
  },
  "char_002_amiya": {
    "charID": "char_002_amiya",
    "xPos": 0.0,
    "yPos": -86.6,
    "sixPosX": 0,
    "sixPosY": -1,
    "lvl": 1.4,
    "teamID": 0,
    "name": null,
    "cardID": null
  },
  "char_110_deepcl": {
    "charID": "char_110_deepcl",
    "xPos": -749.977966,
    "yPos": -346.4,
    "sixPosX": -10,
    "sixPosY": -4,
    "lvl": 0.0,
    "teamID": 0,
    "name": null,
    "cardID": null
  },
  "char_183_skgoat": {
    "charID": "char_183_skgoat",
    "xPos": 674.9802,
    "yPos": 216.500031,
    "sixPosX": 9,
    "sixPosY": 2,
    "lvl": 0.0,
    "teamID": 0,
    "name": null,
    "cardID": null
  },
  "char_136_hsguma": {
    "charID": "char_136_hsguma",
    "xPos": -224.9934,
    "yPos": -303.1,
    "sixPosX": -3,
    "sixPosY": -4,
    "lvl": 0.0,
    "teamID": 0,
    "name": null,
    "cardID": null
  },
  "char_348_ceylon": {
    "charID": "char_348_ceylon",
    "xPos": 674.980164,
    "yPos": -389.699982,
    "sixPosX": 9,
    "sixPosY": -5,
    "lvl": 0.0,
    "teamID": 0,
    "name": null,
    "cardID": null
  },
  "char_124_kroos": {
    "charID": "char_124_kroos",
    "xPos": -599.982361,
    "yPos": 86.6,
    "sixPosX": -8,
    "sixPosY": 1,
    "lvl": 0.0,
    "teamID": 0,
    "name": null,
    "cardID": null
  },
  "char_164_nightm": {
    "charID": "char_164_nightm",
    "xPos": -374.988983,
    "yPos": 389.699982,
    "sixPosX": -5,
    "sixPosY": 4,
    "lvl": 0.0,
    "teamID": 0,
    "name": null,
    "cardID": null
  },
  "char_147_shining": {
    "charID": "char_147_shining",
    "xPos": 224.9934,
    "yPos": 303.1,
    "sixPosX": 3,
    "sixPosY": 3,
    "lvl": 0.0,
    "teamID": 0,
    "name": null,
    "cardID": null
  },
  "char_179_cgbird": {
    "charID": "char_179_cgbird",
    "xPos": 224.9934,
    "yPos": 389.699982,
    "sixPosX": 3,
    "sixPosY": 4,
    "lvl": 0.0,
    "teamID": 0,
    "name": null,
    "cardID": null
  },
  "char_172_svrash": {
    "charID": "char_172_svrash",
    "xPos": 524.984558,
    "yPos": -43.2999954,
    "sixPosX": 7,
    "sixPosY": -1,
    "lvl": 0.4,
    "teamID": 0,
    "name": null,
    "cardID": null
  },
  "char_196_sunbr": {
    "charID": "char_196_sunbr",
    "xPos": 599.982361,
    "yPos": -173.2,
    "sixPosX": 8,
    "sixPosY": -2,
    "lvl": 0.0,
    "teamID": 0,
    "name": null,
    "cardID": null
  },
  "char_281_popka": {
    "charID": "char_281_popka",
    "xPos": -824.975769,
    "yPos": 216.5,
    "sixPosX": -11,
    "sixPosY": 2,
    "lvl": 0.0,
    "teamID": 0,
    "name": null,
    "cardID": null
  },
  "char_158_milu": {
    "charID": "char_158_milu",
    "xPos": 149.99559,
    "yPos": 519.6,
    "sixPosX": 2,
    "sixPosY": 6,
    "lvl": 0.0,
    "teamID": 0,
    "name": null,
    "cardID": null
  },
  "char_163_hpsts": {
    "charID": "char_163_hpsts",
    "xPos": -374.988983,
    "yPos": 216.5,
    "sixPosX": -5,
    "sixPosY": 2,
    "lvl": 0.0,
    "teamID": 0,
    "name": null,
    "cardID": null
  },
  "char_166_skfire": {
    "charID": "char_166_skfire",
    "xPos": -674.9802,
    "yPos": -216.5,
    "sixPosX": -9,
    "sixPosY": -3,
    "lvl": 0.0,
    "teamID": 0,
    "name": null,
    "cardID": null
  },
  "char_278_orchid": {
    "charID": "char_278_orchid",
    "xPos": -824.975769,
    "yPos": 43.3,
    "sixPosX": -11,
    "sixPosY": 0,
    "lvl": 0.4,
    "teamID": 0,
    "name": null,
    "cardID": null
  },
  "char_174_slbell": {
    "charID": "char_174_slbell",
    "xPos": 674.980164,
    "yPos": -43.2999954,
    "sixPosX": 9,
    "sixPosY": -1,
    "lvl": 0.0,
    "teamID": 0,
    "name": null,
    "cardID": null
  },
  "char_151_myrtle": {
    "charID": "char_151_myrtle",
    "xPos": -599.982361,
    "yPos": 259.8,
    "sixPosX": -8,
    "sixPosY": 3,
    "lvl": 0.0,
    "teamID": 0,
    "name": null,
    "cardID": null
  },
  "char_201_moeshd": {
    "charID": "char_201_moeshd",
    "xPos": -149.99559,
    "yPos": 173.2,
    "sixPosX": -2,
    "sixPosY": 2,
    "lvl": 0.0,
    "teamID": 0,
    "name": null,
    "cardID": null
  },
  "char_115_headbr": {
    "charID": "char_115_headbr",
    "xPos": 524.984558,
    "yPos": -216.5,
    "sixPosX": 7,
    "sixPosY": -3,
    "lvl": 0.4,
    "teamID": 0,
    "name": null,
    "cardID": null
  },
  "char_123_fang": {
    "charID": "char_123_fang",
    "xPos": -524.984558,
    "yPos": 43.3,
    "sixPosX": -7,
    "sixPosY": 0,
    "lvl": 0.4,
    "teamID": 0,
    "name": null,
    "cardID": null
  }
}
